<?xml version="1.0" encoding="UTF-8" standalone="no"?>
<!-- Created with Inkscape (http://www.inkscape.org/) -->

<svg
   xmlns:dc="http://purl.org/dc/elements/1.1/"
   xmlns:cc="http://creativecommons.org/ns#"
   xmlns:rdf="http://www.w3.org/1999/02/22-rdf-syntax-ns#"
   xmlns:svg="http://www.w3.org/2000/svg"
   xmlns="http://www.w3.org/2000/svg"
   xmlns:sodipodi="http://sodipodi.sourceforge.net/DTD/sodipodi-0.dtd"
   xmlns:inkscape="http://www.inkscape.org/namespaces/inkscape"
   width="206.21771mm"
   height="128.74951mm"
   viewBox="0 0 206.21771 128.74951"
   version="1.1"
   id="svg8"
   sodipodi:docname="jets.svg"
   inkscape:version="0.92.1 r">
  <defs
     id="defs2">
    <marker
       inkscape:isstock="true"
       style="overflow:visible"
       id="marker5304"
       refX="0"
       refY="0"
       orient="auto"
       inkscape:stockid="Arrow1Lstart">
      <path
         transform="matrix(0.8,0,0,0.8,10,0)"
         style="fill:#000000;fill-opacity:1;fill-rule:evenodd;stroke:#000000;stroke-width:1.00000003pt;stroke-opacity:1"
         d="M 0,0 5,-5 -12.5,0 5,5 Z"
         id="path5302"
         inkscape:connector-curvature="0" />
    </marker>
    <marker
       inkscape:isstock="true"
       style="overflow:visible"
       id="marker5264"
       refX="0"
       refY="0"
       orient="auto"
       inkscape:stockid="Arrow1Lstart">
      <path
         transform="matrix(0.8,0,0,0.8,10,0)"
         style="fill:#000000;fill-opacity:1;fill-rule:evenodd;stroke:#000000;stroke-width:1.00000003pt;stroke-opacity:1"
         d="M 0,0 5,-5 -12.5,0 5,5 Z"
         id="path5262"
         inkscape:connector-curvature="0" />
    </marker>
    <marker
       inkscape:isstock="true"
       style="overflow:visible"
       id="marker5254"
       refX="0"
       refY="0"
       orient="auto"
       inkscape:stockid="Arrow1Lstart">
      <path
         transform="matrix(0.8,0,0,0.8,10,0)"
         style="fill:#000000;fill-opacity:1;fill-rule:evenodd;stroke:#000000;stroke-width:1.00000003pt;stroke-opacity:1"
         d="M 0,0 5,-5 -12.5,0 5,5 Z"
         id="path5252"
         inkscape:connector-curvature="0" />
    </marker>
    <marker
       inkscape:isstock="true"
       style="overflow:visible"
       id="marker5186"
       refX="0"
       refY="0"
       orient="auto"
       inkscape:stockid="Arrow1Lstart">
      <path
         transform="matrix(0.8,0,0,0.8,10,0)"
         style="fill:#000000;fill-opacity:1;fill-rule:evenodd;stroke:#000000;stroke-width:1.00000003pt;stroke-opacity:1"
         d="M 0,0 5,-5 -12.5,0 5,5 Z"
         id="path5184"
         inkscape:connector-curvature="0" />
    </marker>
    <marker
       inkscape:isstock="true"
       style="overflow:visible"
       id="marker5164"
       refX="0"
       refY="0"
       orient="auto"
       inkscape:stockid="Arrow1Lstart">
      <path
         transform="matrix(0.8,0,0,0.8,10,0)"
         style="fill:#000000;fill-opacity:1;fill-rule:evenodd;stroke:#000000;stroke-width:1.00000003pt;stroke-opacity:1"
         d="M 0,0 5,-5 -12.5,0 5,5 Z"
         id="path5162"
         inkscape:connector-curvature="0" />
    </marker>
  </defs>
  <sodipodi:namedview
     id="base"
     pagecolor="#ffffff"
     bordercolor="#666666"
     borderopacity="1.0"
     inkscape:pageopacity="0.0"
     inkscape:pageshadow="2"
     inkscape:zoom="0.7"
     inkscape:cx="370.93486"
     inkscape:cy="251.85806"
     inkscape:document-units="mm"
     inkscape:current-layer="layer1"
     showgrid="false"
     inkscape:measure-start="0,0"
     inkscape:measure-end="0,0"
     inkscape:window-width="1280"
     inkscape:window-height="745"
     inkscape:window-x="0"
     inkscape:window-y="26"
     inkscape:window-maximized="1"
     fit-margin-top="0"
     fit-margin-left="0"
     fit-margin-right="0"
     fit-margin-bottom="0" />
  <metadata
     id="metadata5">
    <rdf:RDF>
      <cc:Work
         rdf:about="">
        <dc:format>image/svg+xml</dc:format>
        <dc:type
           rdf:resource="http://purl.org/dc/dcmitype/StillImage" />
        <dc:title></dc:title>
      </cc:Work>
    </rdf:RDF>
  </metadata>
  <g
     inkscape:label="Layer 1"
     inkscape:groupmode="layer"
     id="layer1"
     transform="translate(-3.9374503,-66.976013)">
    <rect
       style="fill:#f9f9f9;fill-opacity:0.5566502;stroke:none;stroke-width:0.40809387;stroke-miterlimit:4;stroke-dasharray:none;stroke-opacity:1"
       id="rect5444"
       width="188.80267"
       height="103.59134"
       x="21.352484"
       y="66.976013" />
    <path
       style="fill:none;stroke:#000000;stroke-width:0.565;stroke-linecap:butt;stroke-linejoin:miter;stroke-miterlimit:4;stroke-dasharray:none;stroke-opacity:1"
       d="M 193.05782,131.8244 Z"
       id="path4560"
       inkscape:connector-curvature="0" />
    <path
       style="fill:none;stroke:#000000;stroke-width:0.565;stroke-linecap:butt;stroke-linejoin:miter;stroke-miterlimit:4;stroke-dasharray:none;stroke-opacity:1"
       d="M 193.05782,131.8244 Z"
       id="path4562"
       inkscape:connector-curvature="0" />
    <path
       style="fill:none;stroke:#000000;stroke-width:0.565;stroke-linecap:butt;stroke-linejoin:miter;stroke-miterlimit:4;stroke-dasharray:none;stroke-opacity:1"
       d="M 179.20244,166.20724 Z"
       id="path4568"
       inkscape:connector-curvature="0" />
    <g
       id="g5868"
       transform="matrix(-1,0,0,1,231.23341,0)">
      <path
         inkscape:connector-curvature="0"
         id="path4573-3"
         d="m 57.335801,166.33748 -0.741397,-1.47737 2.362761,0.0835 z"
         style="fill:#000080;fill-opacity:1" />
      <path
         inkscape:connector-curvature="0"
         id="path4573-5"
         d="m 38.628105,130.97384 0.744369,1.47587 -2.362925,-0.0787 z"
         style="fill:#000080;fill-opacity:1" />
      <path
         inkscape:connector-curvature="0"
         id="path4573-35"
         d="m 27.433053,146.22076 1.61493,0.35255 -1.550698,1.78464 z"
         style="fill:#000080;fill-opacity:1" />
      <path
         inkscape:connector-curvature="0"
         id="path4573-62"
         d="m 71.642099,144.5198 1.65266,0.0317 -1.173945,2.05218 z"
         style="fill:#000080;fill-opacity:1" />
      <path
         sodipodi:nodetypes="cc"
         inkscape:connector-curvature="0"
         d="m 30.162734,159.27123 c 3.467656,3.59287 5.863956,10.49758 27.502259,6.09854"
         style="fill:none;stroke:#000080;stroke-width:0.565;stroke-linecap:butt;stroke-linejoin:miter;stroke-miterlimit:4;stroke-dasharray:none;stroke-opacity:1"
         id="path4552" />
      <path
         style="fill:none;stroke:#000080;stroke-width:0.565;stroke-linecap:butt;stroke-linejoin:miter;stroke-miterlimit:4;stroke-dasharray:none;stroke-opacity:1"
         d="M 89.536468,168.17694 C 88.831255,156.73625 84.797542,149.43373 78.28496,141.80835"
         id="path4554"
         inkscape:connector-curvature="0"
         sodipodi:nodetypes="cc" />
      <path
         sodipodi:nodetypes="cc"
         inkscape:connector-curvature="0"
         id="path4558"
         d="M 67.507236,134.43256 C 63.948008,131.11044 41.850672,129.47657 38.175594,131.8244"
         style="fill:none;stroke:#000080;stroke-width:0.565;stroke-linecap:butt;stroke-linejoin:miter;stroke-miterlimit:4;stroke-dasharray:none;stroke-opacity:1" />
      <path
         sodipodi:nodetypes="cc"
         inkscape:connector-curvature="0"
         id="path4564"
         d="m 33.141422,135.83647 c -2.554794,2.98712 -4.056369,6.79341 -5.011303,11.02487"
         style="fill:none;stroke:#000080;stroke-width:0.565;stroke-linecap:butt;stroke-linejoin:miter;stroke-miterlimit:4;stroke-dasharray:none;stroke-opacity:1" />
      <path
         sodipodi:nodetypes="csc"
         inkscape:connector-curvature="0"
         id="path4620"
         d="m 72.476933,138.06101 c 0,0 0.145745,2.58428 0.124123,3.82917 -0.02042,1.17577 -0.250252,3.43282 -0.250252,3.43282"
         style="fill:none;stroke:#000080;stroke-width:0.565;stroke-linecap:butt;stroke-linejoin:miter;stroke-miterlimit:4;stroke-dasharray:none;stroke-opacity:1" />
    </g>
    <g
       id="g5792"
       transform="matrix(-1,0,0,1,231.23341,0)">
      <path
         sodipodi:nodetypes="csc"
         inkscape:connector-curvature="0"
         id="path4674"
         d="m 206.75297,90.313839 c 0,0 -20.67972,-0.0338 -30.90624,1.291383 -9.43508,1.222628 -27.89198,6.056226 -27.89198,6.056226"
         style="fill:none;stroke:#78007a;stroke-width:0.565;stroke-linecap:butt;stroke-linejoin:miter;stroke-miterlimit:4;stroke-dasharray:none;stroke-opacity:1" />
      <path
         sodipodi:nodetypes="csc"
         inkscape:connector-curvature="0"
         id="path4676"
         d="m 24.358503,127.78883 c 0,0 18.098167,0.71567 26.816944,0.11888 7.072331,-0.48408 20.430078,-2.9537 20.430078,-2.9537"
         style="fill:none;stroke:#78007a;stroke-width:0.565;stroke-linecap:butt;stroke-linejoin:miter;stroke-miterlimit:4;stroke-dasharray:none;stroke-opacity:1" />
      <path
         inkscape:connector-curvature="0"
         id="path4678"
         d="M 88.824405,117.6503 129.64583,106.31101"
         style="fill:none;stroke:#78007a;stroke-width:0.565;stroke-linecap:butt;stroke-linejoin:miter;stroke-miterlimit:4;stroke-dasharray:none;stroke-opacity:1" />
    </g>
    <g
       id="g5852"
       transform="matrix(-1,0,0,1,231.23341,0)">
      <g
         id="g5780">
        <path
           style="fill:none;stroke:#ff0000;stroke-width:0.565;stroke-linecap:butt;stroke-linejoin:miter;stroke-miterlimit:4;stroke-dasharray:none;stroke-opacity:1"
           d="m 91.09226,136.5491 c 0,0 0.642123,-5.85757 2.927291,-6.44351 1.639386,-0.42036 4.06527,3.04173 4.06527,3.04173"
           id="path4640"
           inkscape:connector-curvature="0"
           sodipodi:nodetypes="csc" />
        <path
           id="path4644"
           style="fill:none;stroke:#ff0000;stroke-width:0.565;stroke-linecap:butt;stroke-linejoin:miter;stroke-miterlimit:4;stroke-dasharray:none;stroke-opacity:1"
           d="M 104.51042,166.03125 C 94.046833,165.72565 94.101365,155.50954 91.019543,147.87462"
           inkscape:connector-curvature="0"
           sodipodi:nodetypes="cc" />
        <path
           id="path4648"
           style="fill:none;stroke:#ff0000;stroke-width:0.565;stroke-linecap:butt;stroke-linejoin:miter;stroke-miterlimit:4;stroke-dasharray:none;stroke-opacity:1"
           d="m 134.55952,153.74702 c -5.21443,10.71401 -14.60204,10.15663 -21.84664,11.79752"
           inkscape:connector-curvature="0"
           sodipodi:nodetypes="cc" />
        <path
           style="fill:none;stroke:#ff0000;stroke-width:0.565;stroke-linecap:butt;stroke-linejoin:miter;stroke-miterlimit:4;stroke-dasharray:none;stroke-opacity:1"
           d="m 139.85119,115.9494 -0.18899,12.85119 v 0"
           id="path4650"
           inkscape:connector-curvature="0" />
        <path
           style="fill:none;stroke:#ff0000;stroke-width:0.565;stroke-linecap:butt;stroke-linejoin:miter;stroke-miterlimit:4;stroke-dasharray:none;stroke-opacity:1"
           d="m 139.85119,134.65923 -0.18899,13.60714"
           id="path4652"
           inkscape:connector-curvature="0" />
        <path
           id="path4656"
           style="fill:none;stroke:#ff0000;stroke-width:0.565;stroke-linecap:butt;stroke-linejoin:miter;stroke-miterlimit:4;stroke-dasharray:none;stroke-opacity:1"
           d="m 142.82813,153.11322 c 7.76085,9.26458 18.63604,10.94641 30.46773,10.29938"
           inkscape:connector-curvature="0"
           sodipodi:nodetypes="cc" />
        <path
           style="fill:none;stroke:#ff0000;stroke-width:0.565;stroke-linecap:butt;stroke-linejoin:miter;stroke-miterlimit:4;stroke-dasharray:none;stroke-opacity:1"
           d="m 185.93087,161.52993 c 0,0 2.07797,-3.90295 2.94471,-6.01855 0.83623,-2.04117 2.16776,-6.41819 2.16776,-6.41819"
           id="path4658"
           inkscape:connector-curvature="0"
           sodipodi:nodetypes="csc" />
        <path
           id="path4662"
           style="fill:none;stroke:#ff0000;stroke-width:0.565;stroke-linecap:butt;stroke-linejoin:miter;stroke-miterlimit:4;stroke-dasharray:none;stroke-opacity:1"
           d="m 194.27501,120.04438 c 0.0182,-2.53517 0.002,-5.11535 -0.45625,-7.60816 m 0.47246,23.69102 -0.0162,-16.08286"
           inkscape:connector-curvature="0"
           sodipodi:nodetypes="cccc" />
        <path
           style="fill:none;stroke:#ff0000;stroke-width:0.565;stroke-linecap:butt;stroke-linejoin:miter;stroke-miterlimit:4;stroke-dasharray:none;stroke-opacity:1"
           d="m 191.25595,103.47619 c -0.98736,-2.35032 -2.86863,-3.512989 -5.57514,-5.740514"
           id="path4664"
           inkscape:connector-curvature="0"
           sodipodi:nodetypes="cc" />
        <path
           style="fill:none;stroke:#ff0000;stroke-width:0.565;stroke-linecap:butt;stroke-linejoin:miter;stroke-miterlimit:4;stroke-dasharray:none;stroke-opacity:1"
           d="m 177.08184,97.239581 c -1.68523,-0.171163 -7.66245,-0.383462 -11.86608,0.02082 -6.61118,0.635833 -11.96822,2.170217 -13.26933,3.002989"
           id="path4668"
           inkscape:connector-curvature="0"
           sodipodi:nodetypes="csc" />
        <path
           style="fill:none;stroke:#ff0000;stroke-width:0.565;stroke-linecap:butt;stroke-linejoin:miter;stroke-miterlimit:4;stroke-dasharray:none;stroke-opacity:1"
           d="m 203.49293,164.85007 c -3.35878,-3.54789 -5.55647,-6.73943 -6.3311,-11.67001"
           id="path4670"
           inkscape:connector-curvature="0"
           sodipodi:nodetypes="cc" />
        <path
           style="fill:none;stroke:#ff0000;stroke-width:0.565;stroke-linecap:butt;stroke-linejoin:miter;stroke-miterlimit:4;stroke-dasharray:none;stroke-opacity:1"
           d="m 196.65931,104.0212 c 0.72025,-1.82944 1.78989,-3.15695 4.34377,-6.03418"
           id="path4672"
           inkscape:connector-curvature="0"
           sodipodi:nodetypes="cc" />
      </g>
      <path
         inkscape:connector-curvature="0"
         id="path4573-62-9"
         d="m 92.077877,148.40379 -1.535047,0.61312 0.284038,-2.34711 z"
         style="fill:#ff0000;fill-opacity:1;stroke-width:1" />
      <path
         inkscape:connector-curvature="0"
         id="path4573-62-9-1"
         d="m 97.427894,133.76944 1.186094,-1.15129 0.630784,2.27853 z"
         style="fill:#ff0000;fill-opacity:1;stroke-width:1" />
      <path
         inkscape:transform-center-y="0.75595238"
         inkscape:transform-center-x="0.42522322"
         inkscape:connector-curvature="0"
         id="path4573-62-9-2"
         d="m 112.71288,165.01537 0.32306,1.62109 -2.25602,-0.70708 z"
         style="fill:#ff0000;fill-opacity:1;stroke-width:1" />
      <path
         inkscape:connector-curvature="0"
         id="path4573-62-9-7"
         d="m 138.97577,147.28464 1.65266,0.0317 -1.17394,2.05218 z"
         style="fill:#ff0000;fill-opacity:1;stroke-width:1" />
      <path
         inkscape:connector-curvature="0"
         id="path4573-62-9-0"
         d="m 138.95563,128.31325 1.65266,0.0317 -1.17394,2.05218 z"
         style="fill:#ff0000;fill-opacity:1;stroke-width:1" />
      <path
         inkscape:transform-center-y="0.33072917"
         inkscape:transform-center-x="0.14174107"
         inkscape:connector-curvature="0"
         id="path4573-62-9-9"
         d="m 172.62024,164.24921 -0.10275,-1.64976 2.14082,1.00324 z"
         style="fill:#ff0000;fill-opacity:1;stroke-width:1" />
      <path
         inkscape:connector-curvature="0"
         id="path4573-62-9-3"
         d="m 191.72511,150.01043 -1.63435,-0.24744 1.43212,-1.88113 z"
         style="fill:#ff0000;fill-opacity:1;stroke-width:1" />
      <path
         inkscape:connector-curvature="0"
         id="path4573-62-9-6"
         d="m 194.77032,113.59438 -1.63151,0.26542 0.78657,-2.22955 z"
         style="fill:#ff0000;fill-opacity:1;stroke-width:1" />
      <path
         inkscape:connector-curvature="0"
         id="path4573-62-9-06"
         d="m 200.29399,97.243166 1.65266,0.0317 -1.17395,2.05218 z"
         style="fill:#ff0000;fill-opacity:1;stroke-width:1" />
      <path
         inkscape:connector-curvature="0"
         id="path4573-62-9-26"
         d="m 185.05963,97.376801 1.65266,0.0317 -1.17395,2.05218 z"
         style="fill:#ff0000;fill-opacity:1;stroke-width:1" />
      <path
         inkscape:connector-curvature="0"
         id="path4573-62-9-18"
         d="m 152.88134,99.038319 0.65769,1.516491 -2.3544,-0.21537 z"
         style="fill:#ff0000;fill-opacity:1;stroke-width:1" />
      <path
         inkscape:connector-curvature="0"
         id="path4573-62-9-79"
         d="m 198.17563,153.6455 -1.54297,0.5929 0.31486,-2.34318 z"
         style="fill:#ff0000;fill-opacity:1;stroke-width:1" />
    </g>
    <text
       xml:space="preserve"
       style="font-style:normal;font-weight:normal;font-size:10.58333302px;line-height:6.61458302px;font-family:sans-serif;letter-spacing:0px;word-spacing:0px;fill:#000000;fill-opacity:1;stroke:none;stroke-width:0.26458332"
       x="15.724"
       y="172.66595"
       id="text4826"><tspan
         sodipodi:role="line"
         id="tspan4824"
         x="15.724"
         y="172.66595"
         style="font-size:6.3499999px;stroke-width:0.26458332">0</tspan></text>
    <text
       xml:space="preserve"
       style="font-style:normal;font-weight:normal;font-size:10.58333302px;line-height:6.61458302px;font-family:sans-serif;letter-spacing:0px;word-spacing:0px;fill:#000000;fill-opacity:1;stroke:none;stroke-width:0.26458332"
       x="15.857326"
       y="149.14127"
       id="text4830"><tspan
         sodipodi:role="line"
         id="tspan4828"
         x="15.857326"
         y="149.14127"
         style="font-size:6.3499999px;stroke-width:0.26458332">5</tspan></text>
    <text
       xml:space="preserve"
       style="font-style:normal;font-weight:normal;font-size:10.58333302px;line-height:6.61458349px;font-family:sans-serif;letter-spacing:0px;word-spacing:0px;fill:#000000;fill-opacity:1;stroke:none;stroke-width:0.26458332"
       x="11.680837"
       y="124.82831"
       id="text4830-2"><tspan
         sodipodi:role="line"
         id="tspan4828-0"
         x="11.680837"
         y="124.82831"
         style="font-size:6.3499999px;stroke-width:0.26458332">10</tspan></text>
    <text
       xml:space="preserve"
       style="font-style:normal;font-weight:normal;font-size:10.58333302px;line-height:6.61458349px;font-family:sans-serif;letter-spacing:0px;word-spacing:0px;fill:#000000;fill-opacity:1;stroke:none;stroke-width:0.26458332"
       x="11.814161"
       y="100.56132"
       id="text4830-23"><tspan
         sodipodi:role="line"
         id="tspan4828-7"
         x="11.814161"
         y="100.56132"
         style="font-size:6.3499999px;stroke-width:0.26458332">15</tspan></text>
    <text
       xml:space="preserve"
       style="font-style:normal;font-weight:normal;font-size:10.58333302px;line-height:6.61458349px;font-family:sans-serif;letter-spacing:0px;word-spacing:0px;fill:#000000;fill-opacity:1;stroke:none;stroke-width:0.26458332"
       x="11.680837"
       y="76.225761"
       id="text4830-5"><tspan
         sodipodi:role="line"
         id="tspan4828-9"
         x="11.680837"
         y="76.225761"
         style="font-size:6.3499999px;stroke-width:0.26458332">20</tspan></text>
    <path
       style="fill:none;stroke:#000000;stroke-width:0.46000001;stroke-linecap:butt;stroke-linejoin:miter;stroke-miterlimit:4;stroke-dasharray:none;stroke-opacity:1"
       d="m 21.247889,146.93045 3.939707,-0.0657"
       id="path4866"
       inkscape:connector-curvature="0"
       sodipodi:nodetypes="cc" />
    <path
       style="fill:none;stroke:#000000;stroke-width:0.48699999;stroke-linecap:butt;stroke-linejoin:miter;stroke-miterlimit:4;stroke-dasharray:none;stroke-opacity:1"
       d="m 21.245721,122.51682 h 4"
       id="path4868"
       inkscape:connector-curvature="0" />
    <path
       style="fill:none;stroke:#000000;stroke-width:0.458;stroke-linecap:butt;stroke-linejoin:miter;stroke-miterlimit:4;stroke-dasharray:none;stroke-opacity:1"
       d="m 21.245721,98.29169 h 4"
       id="path4870"
       inkscape:connector-curvature="0" />
    <path
       style="fill:none;stroke:#000000;stroke-width:0.44600001;stroke-linecap:butt;stroke-linejoin:miter;stroke-miterlimit:4;stroke-dasharray:none;stroke-opacity:1"
       d="m 21.245721,73.914276 h 4"
       id="path4872"
       inkscape:connector-curvature="0" />
    <text
       xml:space="preserve"
       style="font-style:normal;font-weight:normal;font-size:5.64444447px;line-height:6.61458302px;font-family:sans-serif;letter-spacing:0px;word-spacing:0px;fill:#000080;fill-opacity:1;stroke:none;stroke-width:0.26458332"
       x="201.33876"
       y="168.16566"
       id="text5386"><tspan
         sodipodi:role="line"
         id="tspan5384"
         x="201.33876"
         y="168.16566"
         style="font-size:9.87777805px;fill:#000080;stroke-width:0.26458332">A</tspan></text>
    <text
       xml:space="preserve"
       style="font-style:normal;font-weight:normal;font-size:10.58333302px;line-height:6.61458349px;font-family:sans-serif;letter-spacing:0px;word-spacing:0px;fill:#000000;fill-opacity:1;stroke:none;stroke-width:0.26458332"
       x="66.615204"
       y="199.48392"
       id="text4830-22"><tspan
         sodipodi:role="line"
         id="tspan4828-8"
         x="66.615204"
         y="205.54039"
         style="font-size:6.3499999px;stroke-width:0.26458332" /></text>
    <text
       xml:space="preserve"
       style="font-style:normal;font-weight:normal;font-size:5.64444447px;line-height:6.61458349px;font-family:sans-serif;letter-spacing:0px;word-spacing:0px;fill:#ff0000;fill-opacity:1;stroke:none;stroke-width:0.26458332"
       x="149.6049"
       y="168.16566"
       id="text5386-9"><tspan
         sodipodi:role="line"
         id="tspan5384-7"
         x="149.6049"
         y="168.16566"
         style="font-size:9.87777805px;fill:#ff0000;stroke-width:0.26458332">B</tspan></text>
    <text
       xml:space="preserve"
       style="font-style:normal;font-weight:normal;font-size:5.64444447px;line-height:6.61458349px;font-family:sans-serif;letter-spacing:0px;word-spacing:0px;fill:#ff0000;fill-opacity:1;stroke:none;stroke-width:0.26458332"
       x="35.366467"
       y="168.16566"
       id="text5386-9-3"><tspan
         sodipodi:role="line"
         id="tspan5384-7-6"
         x="35.366467"
         y="168.16566"
         style="font-size:9.87777805px;fill:#ff0000;stroke-width:0.26458332">B</tspan></text>
    <text
       xml:space="preserve"
       style="font-style:normal;font-weight:normal;font-size:5.64444447px;line-height:6.61458302px;font-family:sans-serif;letter-spacing:0px;word-spacing:0px;fill:#000000;fill-opacity:1;stroke:none;stroke-width:0.26458332"
       x="-137.11285"
       y="8.7619619"
       id="text5438"
       transform="rotate(-90)"><tspan
         sodipodi:role="line"
         id="tspan5436"
         x="-137.11285"
         y="8.7619619"
         style="font-size:6.3499999px;line-height:6.61458349px;stroke-width:0.26458332">Altitud (km)</tspan></text>
    <text
       xml:space="preserve"
       style="font-style:normal;font-weight:normal;font-size:5.64444447px;line-height:6.61458302px;font-family:sans-serif;letter-spacing:0px;word-spacing:0px;fill:#000000;fill-opacity:1;stroke:none;stroke-width:0.26458332"
       x="174.54245"
       y="124.56284"
       id="text5442"><tspan
         sodipodi:role="line"
         id="tspan5440"
         x="174.54245"
         y="124.56284"
         style="stroke-width:0.26458332">Tropopausa</tspan></text>
    <text
       xml:space="preserve"
       style="font-style:normal;font-weight:normal;font-size:5.64444447px;line-height:6.61458349px;font-family:sans-serif;letter-spacing:0px;word-spacing:0px;fill:#000000;fill-opacity:1;stroke:none;stroke-width:0.26458332"
       x="99.00119"
       y="194.88837"
       id="text5438-1"><tspan
         sodipodi:role="line"
         id="tspan5436-2"
         x="99.00119"
         y="194.88837"
         style="font-size:6.3499999px;line-height:6.61458349px;stroke-width:0.26458332">Latitud (°S)</tspan></text>
    <text
       xml:space="preserve"
       style="font-style:normal;font-weight:normal;font-size:5.64444447px;line-height:6.61458302px;font-family:sans-serif;letter-spacing:0px;word-spacing:0px;fill:#000000;fill-opacity:1;stroke:none;stroke-width:0.26458332"
       x="198.11096"
       y="182.07411"
       id="text5466"><tspan
         sodipodi:role="line"
         id="tspan5464"
         x="198.11096"
         y="182.07411"
         style="stroke-width:0.26458332">Polo</tspan><tspan
         sodipodi:role="line"
         x="198.11096"
         y="188.68869"
         style="stroke-width:0.26458332"
         id="tspan5468">Sur</tspan></text>
    <text
       xml:space="preserve"
       style="font-style:normal;font-weight:normal;font-size:5.64444447px;line-height:6.61458349px;font-family:sans-serif;letter-spacing:0px;word-spacing:0px;fill:#000000;fill-opacity:1;stroke:none;stroke-width:0.26458332"
       x="130.09764"
       y="179.0002"
       id="text5466-9"><tspan
         sodipodi:role="line"
         x="130.09764"
         y="179.0002"
         style="stroke-width:0.26458332"
         id="tspan5468-1">Frente</tspan><tspan
         sodipodi:role="line"
         x="130.09764"
         y="185.61478"
         style="stroke-width:0.26458332"
         id="tspan5493">polar</tspan></text>
    <text
       xml:space="preserve"
       style="font-style:normal;font-weight:normal;font-size:5.64444447px;line-height:6.61458349px;font-family:sans-serif;letter-spacing:0px;word-spacing:0px;fill:#000000;fill-opacity:1;stroke:none;stroke-width:0.26458332"
       x="27.985445"
       y="180.33655"
       id="text5466-94"><tspan
         sodipodi:role="line"
         x="27.985445"
         y="180.33655"
         style="stroke-width:0.26458332"
         id="tspan5468-8">Ecuador</tspan></text>
    <path
       style="fill:none;stroke:#000000;stroke-width:0.48700002;stroke-linecap:butt;stroke-linejoin:miter;stroke-miterlimit:4;stroke-dasharray:none;stroke-opacity:1"
       d="m 153.25753,170.71967 v 4"
       id="path4868-4"
       inkscape:connector-curvature="0" />
    <path
       style="fill:none;stroke:#000000;stroke-width:0.48700005;stroke-linecap:butt;stroke-linejoin:miter;stroke-miterlimit:4;stroke-dasharray:none;stroke-opacity:1"
       d="m 94.658681,170.71967 v 4"
       id="path4868-4-5"
       inkscape:connector-curvature="0" />
    <path
       style="fill:none;stroke:#000000;stroke-width:0.48700005;stroke-linecap:butt;stroke-linejoin:miter;stroke-miterlimit:4;stroke-dasharray:none;stroke-opacity:1"
       d="m 39.801611,170.71967 v 4"
       id="path4868-4-0"
       inkscape:connector-curvature="0" />
    <text
       xml:space="preserve"
       style="font-style:normal;font-weight:normal;font-size:10.58333302px;line-height:6.61458349px;font-family:sans-serif;letter-spacing:0px;word-spacing:0px;fill:#000000;fill-opacity:1;stroke:none;stroke-width:0.26458332"
       x="150.60172"
       y="181.3788"
       id="text4830-2-3"><tspan
         sodipodi:role="line"
         id="tspan4828-0-6"
         x="150.60172"
         y="181.3788"
         style="font-size:6.3499999px;stroke-width:0.26458332">60</tspan></text>
    <text
       xml:space="preserve"
       style="font-style:normal;font-weight:normal;font-size:10.58333302px;line-height:6.61458349px;font-family:sans-serif;letter-spacing:0px;word-spacing:0px;fill:#000000;fill-opacity:1;stroke:none;stroke-width:0.26458332"
       x="90.586067"
       y="181.3788"
       id="text4830-2-1"><tspan
         sodipodi:role="line"
         id="tspan4828-0-0"
         x="90.586067"
         y="181.3788"
         style="font-size:6.3499999px;stroke-width:0.26458332">30</tspan></text>
    <flowRoot
       xml:space="preserve"
       id="flowRoot5576"
       style="font-style:normal;font-weight:normal;font-size:21.33333397px;line-height:25px;font-family:sans-serif;letter-spacing:0px;word-spacing:0px;fill:#000000;fill-opacity:1;stroke:none"
       transform="scale(0.26458333)"><flowRegion
         id="flowRegion5578"><rect
           id="rect5580"
           width="23.571428"
           height="24.285715"
           x="265.71429"
           y="145.37683" /></flowRegion><flowPara
         id="flowPara5582"></flowPara></flowRoot>    <g
       id="g5605"
       transform="translate(76.263169,83.532738)">
      <ellipse
         ry="5.953125"
         rx="6.0476193"
         cy="40.25967"
         cx="73.70536"
         id="path5569"
         style="fill:none;fill-opacity:0.5566502;stroke:#000000;stroke-width:0.44600001;stroke-miterlimit:4;stroke-dasharray:none;stroke-opacity:1" />
      <text
         id="text5386-9-6"
         y="43.855316"
         x="70.247177"
         style="font-style:normal;font-weight:normal;font-size:5.64444447px;line-height:6.61458349px;font-family:sans-serif;letter-spacing:0px;word-spacing:0px;fill:#000000;fill-opacity:1;stroke:none;stroke-width:0.26458332"
         xml:space="preserve"><tspan
           style="font-size:9.87777805px;stroke-width:0.26458332"
           y="43.855316"
           x="70.247177"
           id="tspan5384-7-3"
           sodipodi:role="line">C</tspan></text>
    </g>
    <g
       id="g5605-2"
       transform="translate(16.920909,64.728425)">
      <ellipse
         ry="5.953125"
         rx="6.0476193"
         cy="40.25967"
         cx="73.70536"
         id="path5569-0"
         style="fill:none;fill-opacity:0.5566502;stroke:#000000;stroke-width:0.44600001;stroke-miterlimit:4;stroke-dasharray:none;stroke-opacity:1" />
      <text
         id="text5386-9-6-6"
         y="43.855316"
         x="70.247177"
         style="font-style:normal;font-weight:normal;font-size:5.64444447px;line-height:6.61458349px;font-family:sans-serif;letter-spacing:0px;word-spacing:0px;fill:#000000;fill-opacity:1;stroke:none;stroke-width:0.26458332"
         xml:space="preserve"><tspan
           style="font-size:9.87777805px;stroke-width:0.26458332"
           y="43.855316"
           x="70.247177"
           id="tspan5384-7-3-1"
           sodipodi:role="line">C</tspan></text>
    </g>
    <text
       xml:space="preserve"
       style="font-style:normal;font-weight:normal;font-size:5.64444447px;line-height:6.61458302px;font-family:sans-serif;letter-spacing:0px;word-spacing:0px;fill:#000000;fill-opacity:1;stroke:none;stroke-width:0.26458332"
       x="139.9057"
       y="100.26339"
       id="text5633"><tspan
         sodipodi:role="line"
         id="tspan5631"
         x="139.9057"
         y="100.26339"
         style="font-size:5.64444447px;stroke-width:0.26458332">Corriente</tspan><tspan
         sodipodi:role="line"
         x="139.9057"
         y="106.87798"
         style="font-size:5.64444447px;stroke-width:0.26458332"
         id="tspan5635">en chorro</tspan><tspan
         sodipodi:role="line"
         x="139.9057"
         y="113.49255"
         style="font-size:5.64444447px;stroke-width:0.26458332"
         id="tspan5637">polar</tspan></text>
    <text
       xml:space="preserve"
       style="font-style:normal;font-weight:normal;font-size:5.64444447px;line-height:6.61458349px;font-family:sans-serif;letter-spacing:0px;word-spacing:0px;fill:#000000;fill-opacity:1;stroke:none;stroke-width:0.26458332"
       x="83.417542"
       y="80.275932"
       id="text5633-5"><tspan
         sodipodi:role="line"
         id="tspan5631-5"
         x="83.417542"
         y="80.275932"
         style="font-size:5.64444447px;stroke-width:0.26458332">Corriente</tspan><tspan
         sodipodi:role="line"
         x="83.417542"
         y="86.890518"
         style="font-size:5.64444447px;stroke-width:0.26458332"
         id="tspan5635-4">en chorro</tspan><tspan
         sodipodi:role="line"
         x="83.417542"
         y="93.505096"
         style="font-size:5.64444447px;stroke-width:0.26458332"
         id="tspan5637-7">subtropical</tspan></text>
    <text
       xml:space="preserve"
       style="font-style:normal;font-weight:normal;font-size:5.64444447px;line-height:6.61458302px;font-family:sans-serif;letter-spacing:0px;word-spacing:0px;fill:#000000;fill-opacity:1;stroke:none;stroke-width:0.26458332"
       x="153.22093"
       y="158.39592"
       id="text5665"><tspan
         sodipodi:role="line"
         id="tspan5663"
         x="153.22093"
         y="158.39592"
         style="font-style:normal;font-variant:normal;font-weight:bold;font-stretch:normal;font-family:sans-serif;-inkscape-font-specification:'sans-serif Bold';stroke-width:0.26458332">TROPOSFERA</tspan></text>
    <text
       xml:space="preserve"
       style="font-style:normal;font-weight:normal;font-size:5.64444447px;line-height:6.61458302px;font-family:sans-serif;letter-spacing:0px;word-spacing:0px;fill:#000000;fill-opacity:1;stroke:none;stroke-width:0.26458332"
       x="152.94748"
       y="84.727753"
       id="text5669"><tspan
         sodipodi:role="line"
         id="tspan5667"
         x="152.94748"
         y="84.727753"
         style="font-style:normal;font-variant:normal;font-weight:bold;font-stretch:normal;font-family:sans-serif;-inkscape-font-specification:'sans-serif Bold';stroke-width:0.26458332">ESTRATOSFERA</tspan></text>
    <path
       style="fill:none;stroke:#000000;stroke-width:0.26499999;stroke-linecap:butt;stroke-linejoin:miter;stroke-miterlimit:4;stroke-dasharray:none;stroke-opacity:0.54187191"
       d="m 24.196951,151.76265 c -0.33865,-1.17577 0.93092,-2.12765 1.04525,-2.89334 0.90753,-1.47333 -0.37958,-2.65439 -1.7067,-2.87083 -0.85436,-0.34109 -1.6012,-1.84187 -0.85045,-2.83487 0.24758,-1.53822 1.26374,-1.22029 2.26789,-1.8899 1.15064,-0.0199 0.24966,-1.29101 -0.94493,-1.41744 -0.85604,-0.66437 -0.57266,-2.27991 0.18898,-2.92935 0.70066,-1.1341 1.48856,-3.26152 0.18899,-4.06326 -1.49155,0.14773 -1.31987,-1.58727 -1.13394,-2.64586 0.26952,-1.37483 1.50637,-2.178 2.64589,-2.83486 1.45834,-0.12933 3.29263,-0.80631 3.59079,-2.42053 -0.19822,-1.19336 0.72383,-1.27558 1.60641,-0.88681 m -4.34681,-8.59862 c -1.03514,-0.28701 -2.47437,-0.43493 -3.30734,0.37797 -0.28684,1.66108 -0.004,3.43138 0.66149,4.91371 0.26738,0.62605 1.00705,1.45186 1.22845,2.55135 0.59561,1.5348 -0.92562,1.73385 -1.41743,2.55137 -0.55744,1.00899 0.15383,1.82669 -10e-6,2.63099 v 0.15264 0.14538 m 23.81244,31.46672 c 1.11728,-0.6641 3.05109,-1.39932 3.77977,-0.75597 1.44869,-0.0911 2.23595,1.5656 3.49632,1.88993 1.39104,-0.0759 1.66271,-2.01002 1.60643,-3.21281 -0.29706,-1.06045 -1.58033,-1.62001 -2.64587,-1.60642 -1.14434,-0.32081 -2.58375,-1.11413 -2.64588,-2.36239 0.0891,-1.31855 -0.24501,-2.39228 -0.85047,-3.30731 -0.86118,-1.03822 -1.35521,-1.60449 -1.70543,-2.69313 -0.29062,-0.62498 -0.44351,-1.93873 -0.37351,-2.96203 -0.0896,-1.39528 -0.47824,-1.62134 -1.22847,-1.62094 -0.0577,-1.33963 0.43836,-2.56045 1.22845,-3.59079 0.25324,-1.40674 0.82356,-2.5539 0.85048,-3.95423 0.75036,-1.77444 -1.04177,-1.43293 -2.13705,-1.71544 -1.41721,-0.48795 -2.54248,0.38022 -3.45205,0.0847 0.0264,-1.13922 -0.47016,-2.85285 0.39201,-3.67536 1.26607,0.0541 2.40575,0.0522 3.11832,1.22846 1.08566,0.63196 1.76389,-0.70285 1.88992,-1.6064 -0.51228,0.76532 0.59305,-1.27088 0.66146,-1.7009 0.085,-0.88014 0.0671,-1.70217 -0.75595,-2.0789 -1.30966,0.17887 -1.71124,-1.19799 -1.51192,-2.3624 1.70131,-0.8946 1.90651,-1.92022 2.07889,-3.61258 -0.18602,-1.22809 0.29598,-3.07588 -0.0892,-3.65884 0.44203,-1.05223 -0.79381,-1.88365 -1.42285,-2.65046 -0.60354,-0.68022 -1.8724,-0.26046 -2.88569,-0.37798 -0.52486,0.0755 -2.74561,-0.42091 -1.91173,-0.2835 1.38855,-0.0684 2.66838,0.12562 4.04147,0.0945 0.4891,-1.08332 0.009,-2.478 -0.0945,-3.59078 -0.5663,-1.05407 -0.78685,-2.23302 -0.94497,-3.68529 -0.89741,-0.6117 -0.9386,-1.90063 -0.56697,-2.83484 1.40544,-0.66454 3.29209,-0.98278 3.96877,-2.5514 0.53643,-1.937269 2.01985,-0.85947 3.22852,-0.67271 0.65771,0.38916 2.89344,1.27132 2.53566,-0.46121 0.25475,-1.326007 -0.5377,-2.322015 -1.12588,-3.399224 0.10026,-1.615025 -1.74586,-1.311488 -2.92289,-1.325466 -1.60688,0.05857 -2.92909,-0.167176 -4.55017,-0.09432 -1.61946,-0.536876 -3.5764,0.280877 -5.0082,-0.661446 -1.41353,-0.371777 -2.61222,-0.313601 -4.1214,-0.377973 -1.69579,0.01503 -3.39742,0.03612 -5.04454,-0.18898 -1.77537,-0.163197 -3.63384,-0.16224 -5.37162,0.0945 -1.1143,-0.04474 -2.41,0.28586 -3.22735,0.472458 -0.89587,0.202547 -1.65184,1.259568 -1.41744,2.347783 0.0976,1.098212 1.12899,2.222763 2.07889,2.282373 0.97607,0.673558 1.28477,2.192525 2.17341,3.023815 0.85378,0.66855 1.87682,2.51949 0.28351,3.02384 -1.17948,0.12118 -0.88172,1.55507 -0.94495,2.60949 -0.0504,1.25979 0.64424,2.47313 -0.18898,3.53265 -0.27718,0.82319 -1.13659,2.09196 -0.94496,3.3073 0.69774,0.39021 2.05635,1.54567 2.74038,0.66147 0.45093,-1.00614 0.94372,-2.15552 1.32295,-3.30733 0.65107,-1.24985 0.50995,-2.18909 1.41745,-3.3073 m -1.70102,50.8378 c -1.35612,0.23094 -2.48512,-0.49871 -3.77978,-0.56698 -0.97095,-1.04107 -3.81959,-0.0491 -3.02383,-2.2679 0.30248,-1.0832 0.87792,-2.0107 1.22846,-3.02387 0.14317,-0.86419 1.10234,-3.56976 2.55137,-1.79537 0.70525,1.485 2.32136,-0.0144 3.02384,-0.94497 0.77626,-1.27622 2.24884,-2.06231 3.77976,-1.88992 0.9093,0.12594 1.41871,-0.52651 2.07888,-0.94496"
       id="path5679"
       inkscape:connector-curvature="0" />
    <path
       style="fill:none;stroke:#000000;stroke-width:0.26458332px;stroke-linecap:butt;stroke-linejoin:miter;stroke-opacity:0.49261092"
       d="m 144.1099,142.9747 c 0.87579,-0.65913 2.03614,-0.63553 3.04915,-0.93315 0.78186,-0.26029 1.14362,0.8557 1.52146,0.81617 l 0.13094,-0.0956 0.11772,-0.071 m -8.03207,0.28357 c -0.35981,-1.29383 -2.08287,-1.17759 -3.17706,-1.38535 -0.32616,-0.0129 -0.39907,0.32183 -0.69717,0.3459 m -8.50449,15.96951 c -1.10789,-0.22926 -2.36995,-0.0362 -3.36289,-0.58734 -0.77812,-0.51112 -1.85656,-1.42509 -1.44468,-2.43778 0.43329,-1.01855 1.44124,-1.51941 2.48809,-1.65807 1.33732,0.12822 1.62026,-1.3872 2.01262,-2.36136 0.50511,-1.17624 1.67346,-1.9058 2.40722,-2.93493 0.9105,-0.73353 2.06024,-1.35266 2.05402,-2.69321 0.11707,-1.38332 0.89974,-2.87237 2.34935,-3.2015 0.95702,-0.1646 2.12213,0.17134 2.64918,-0.9282 1.05906,-1.23893 2.27655,-2.56116 3.98173,-2.81152 1.19603,-0.41456 2.37109,0.32812 3.57842,0.15471 1.1357,0.0919 2.31374,-0.48307 3.40815,-0.0419 1.08882,0.41303 1.02204,1.61044 0.93269,2.56602 0.0167,1.04662 -0.6776,1.84706 -1.27709,2.62211 -0.92138,1.5616 -1.73964,3.21372 -2.9568,4.57999 -0.57743,1.10785 -1.08348,2.25547 -1.84279,3.2567 -0.88858,1.535 -1.89524,3.00219 -2.69289,4.58633 -0.69025,0.88727 -1.08465,2.23449 -2.52981,1.98433 -1.34337,0.0806 -2.65418,-0.17691 -3.98113,-0.28342 -0.60151,0 -1.20303,0 -1.80454,0 -0.8483,-0.6354 -2.0741,-0.18143 -2.92336,0.19501 -0.34832,-0.0127 -0.69702,-0.003 -1.04549,-0.006 z m 8.69346,-10.11085 c -0.5679,-0.75183 -1.67961,-0.45311 -2.464,-0.1688 -0.92933,0.21498 -1.71185,1.18036 -1.8458,1.93794 -0.46007,0.78056 -1.06758,1.34324 -1.83232,0.68775 -0.82631,-0.33682 -1.52044,0.61525 -1.98441,1.22843 -0.25812,0.59349 -0.64096,1.16199 -1.23294,1.50847 -0.87153,0.25725 0.15153,-1.07366 0.099,-1.41399"
       id="path5743"
       inkscape:connector-curvature="0" />
    <text
       xml:space="preserve"
       style="font-style:normal;font-weight:normal;font-size:5.64444447px;line-height:6.61458349px;font-family:sans-serif;letter-spacing:0px;word-spacing:0px;fill:#000080;fill-opacity:1;stroke:none;stroke-width:0.26458332"
       x="87.338097"
       y="168.16566"
       id="text5386-1"><tspan
         sodipodi:role="line"
         id="tspan5384-3"
         x="87.338097"
         y="168.16566"
         style="font-size:9.87777805px;fill:#000080;stroke-width:0.26458332">A</tspan></text>
  </g>
</svg>
